{
    "server": {
        "listen": "0.0.0.0",
        "port": 3000
    },
    "auth": {
        "secret": "changeme"
    },
    "db": {
        "host": "database-kevin-cesi.ctyvrkfxp4tm.us-east-1.rds.amazonaws.com",
        "port": 3306,
        "user": "admin",
        "pass": "adminadmin",
        "data": "FORUM"
    }
}